<?xml version="1.0" encoding="utf-8"?>
<!-- Generator: Adobe Illustrator 25.2.1, SVG Export Plug-In . SVG Version: 6.00 Build 0)  -->
<svg version="1.1" id="Lager_1" xmlns="http://www.w3.org/2000/svg" xmlns:xlink="http://www.w3.org/1999/xlink" x="0px" y="0px"
	 viewBox="0 0 11 15.9" style="enable-background:new 0 0 11 15.9;" xml:space="preserve">
<path d="M1.3,13.8l4.2-5.2c0.3-0.4,0.3-0.9,0-1.3L1.3,2.1C0.8,1.4,1.3,0.4,2.1,0.4h1.7c0.3,0,0.6,0.1,0.8,0.4l5.1,6.5
	c0.3,0.4,0.3,0.9,0,1.3L4.6,15c-0.2,0.2-0.5,0.4-0.8,0.4H2.1C1.3,15.4,0.8,14.4,1.3,13.8z"/>
</svg>
